<svg width="1280" height="720" viewBox="0 0 1280 720" fill="none" xmlns="http://www.w3.org/2000/svg">
<rect width="1280" height="720" fill="white"/>
<rect width="1280" height="720" fill="url(#paint0_linear)"/>
<path d="M907 612.625C896.297 612.625 887.625 621.297 887.625 632C887.625 642.703 896.297 651.375 907 651.375C917.703 651.375 926.375 642.703 926.375 632C926.375 621.297 917.703 612.625 907 612.625ZM905.75 638.25C905.75 638.953 905.125 639.5 904.5 639.5H900.75C900.047 639.5 899.5 638.953 899.5 638.25V625.75C899.5 625.125 900.047 624.5 900.75 624.5H904.5C905.125 624.5 905.75 625.125 905.75 625.75V638.25ZM914.5 638.25C914.5 638.953 913.875 639.5 913.25 639.5H909.5C908.797 639.5 908.25 638.953 908.25 638.25V625.75C908.25 625.125 908.797 624.5 909.5 624.5H913.25C913.875 624.5 914.5 625.125 914.5 625.75V638.25Z" fill="white"/>
<path d="M543 632H854" stroke="white"/>
<path d="M641.966 153.86C642.686 153.86 643.246 154.04 643.646 154.4C644.046 154.76 644.246 155.26 644.246 155.9C644.246 157.3 643.486 158 641.966 158H618.446C617.766 158 617.206 157.8 616.766 157.4C616.326 156.96 616.106 156.44 616.106 155.84C616.106 155.08 616.386 154.42 616.946 153.86L631.406 137.96C633.406 135.72 634.846 133.72 635.726 131.96C636.646 130.16 637.106 128.36 637.106 126.56C637.106 124.24 636.426 122.46 635.066 121.22C633.746 119.98 631.866 119.36 629.426 119.36C627.506 119.36 625.666 119.72 623.906 120.44C622.146 121.12 620.386 122.18 618.626 123.62C618.026 124.1 617.466 124.34 616.946 124.34C616.506 124.34 616.126 124.14 615.806 123.74C615.486 123.3 615.326 122.78 615.326 122.18C615.326 121.34 615.646 120.66 616.286 120.14C617.926 118.62 619.926 117.42 622.286 116.54C624.646 115.66 627.066 115.22 629.546 115.22C633.346 115.22 636.366 116.22 638.606 118.22C640.886 120.22 642.026 122.92 642.026 126.32C642.026 128.76 641.466 131.1 640.346 133.34C639.266 135.58 637.466 138.08 634.946 140.84L622.946 153.86H641.966ZM654.363 134.9C653.403 134.9 652.603 134.6 651.963 134C651.323 133.36 651.003 132.54 651.003 131.54C651.003 130.54 651.323 129.74 651.963 129.14C652.603 128.5 653.403 128.18 654.363 128.18C655.283 128.18 656.043 128.5 656.643 129.14C657.283 129.74 657.603 130.54 657.603 131.54C657.603 132.54 657.283 133.36 656.643 134C656.043 134.6 655.283 134.9 654.363 134.9ZM654.363 158.3C653.403 158.3 652.603 158 651.963 157.4C651.323 156.76 651.003 155.94 651.003 154.94C651.003 153.94 651.323 153.12 651.963 152.48C652.603 151.84 653.403 151.52 654.363 151.52C655.283 151.52 656.043 151.84 656.643 152.48C657.283 153.12 657.603 153.94 657.603 154.94C657.603 155.94 657.283 156.76 656.643 157.4C656.043 158 655.283 158.3 654.363 158.3ZM690.694 153.86C691.414 153.86 691.974 154.04 692.374 154.4C692.774 154.76 692.974 155.26 692.974 155.9C692.974 156.58 692.774 157.1 692.374 157.46C692.014 157.82 691.454 158 690.694 158H670.834C670.074 158 669.494 157.82 669.094 157.46C668.734 157.1 668.554 156.58 668.554 155.9C668.554 155.26 668.754 154.76 669.154 154.4C669.554 154.04 670.114 153.86 670.834 153.86H678.274V121.7L671.734 125.96C671.414 126.16 671.094 126.26 670.774 126.26C670.214 126.26 669.714 126 669.274 125.48C668.874 124.96 668.674 124.4 668.674 123.8C668.674 122.96 668.994 122.36 669.634 122L678.754 116.06C679.434 115.62 680.134 115.4 680.854 115.4C681.534 115.4 682.094 115.62 682.534 116.06C682.974 116.5 683.194 117.12 683.194 117.92V153.86H690.694ZM729.13 144.74C729.85 144.74 730.41 144.94 730.81 145.34C731.21 145.7 731.41 146.18 731.41 146.78C731.41 148.14 730.65 148.82 729.13 148.82H724.63V155.78C724.63 156.58 724.39 157.2 723.91 157.64C723.47 158.08 722.89 158.3 722.17 158.3C721.45 158.3 720.87 158.08 720.43 157.64C719.99 157.2 719.77 156.58 719.77 155.78V148.82H702.01C701.29 148.82 700.73 148.62 700.33 148.22C699.93 147.82 699.73 147.32 699.73 146.72C699.73 146.16 699.95 145.54 700.39 144.86L720.01 116.48C720.57 115.76 721.29 115.4 722.17 115.4C722.85 115.4 723.43 115.62 723.91 116.06C724.39 116.5 724.63 117.12 724.63 117.92V144.74H729.13ZM719.77 144.74V123.92L705.31 144.74H719.77Z" fill="white"/>
<path d="M600.552 140.938C600.552 136.934 599.282 133.125 597.232 129.902H597.329L600.161 126.973C600.65 126.582 600.65 125.801 600.161 125.312L597.427 122.578C596.939 122.09 596.157 122.09 595.767 122.578L593.032 125.312C590.298 123.066 586.978 121.504 583.364 120.918V117.5H586.099C586.685 117.5 587.271 117.012 587.271 116.328V112.422C587.271 111.836 586.685 111.25 586.099 111.25H574.38C573.696 111.25 573.208 111.836 573.208 112.422V116.328C573.208 117.012 573.696 117.5 574.38 117.5H577.114V120.918C567.349 122.383 559.927 130.781 559.927 140.938C559.927 152.168 569.009 161.25 580.239 161.25C591.372 161.25 600.552 152.168 600.552 140.938ZM583.364 144.453C583.364 145.137 582.778 145.625 582.193 145.625H578.286C577.603 145.625 577.114 145.137 577.114 144.453V129.707C577.114 129.023 577.603 128.535 578.286 128.535H582.193C582.778 128.535 583.364 129.023 583.364 129.707V144.453Z" fill="white"/>
<g filter="url(#filter0_d)">
<rect x="354.022" y="226" width="572.978" height="358" rx="15" fill="white"/>
</g>
<path d="M607.898 535.461H610.154C611.228 535.461 612.024 535.192 612.542 534.655C613.059 534.118 613.318 533.405 613.318 532.517C613.318 531.657 613.059 530.988 612.542 530.51C612.034 530.031 611.331 529.792 610.432 529.792C609.622 529.792 608.943 530.017 608.396 530.466C607.849 530.905 607.576 531.481 607.576 532.194H603.343C603.343 531.081 603.641 530.085 604.236 529.206C604.842 528.317 605.682 527.624 606.756 527.126C607.84 526.628 609.031 526.379 610.33 526.379C612.586 526.379 614.353 526.921 615.633 528.005C616.912 529.079 617.552 530.563 617.552 532.458C617.552 533.435 617.254 534.333 616.658 535.153C616.062 535.974 615.281 536.604 614.314 537.043C615.516 537.473 616.409 538.117 616.995 538.977C617.591 539.836 617.889 540.852 617.889 542.023C617.889 543.918 617.195 545.437 615.808 546.579C614.432 547.722 612.605 548.293 610.33 548.293C608.201 548.293 606.458 547.731 605.1 546.608C603.753 545.485 603.079 544.001 603.079 542.155H607.312C607.312 542.956 607.61 543.61 608.206 544.118C608.811 544.626 609.554 544.88 610.432 544.88C611.438 544.88 612.224 544.616 612.791 544.089C613.367 543.552 613.655 542.844 613.655 541.965C613.655 539.836 612.483 538.771 610.14 538.771H607.898V535.461ZM634.222 541.643L632.698 543.166V548H628.465V525.5H632.698V537.966L633.518 536.911L637.576 532.15H642.659L636.932 538.757L643.157 548H638.294L634.222 541.643ZM662.127 548H657.732V538.859H649.163V548H644.768V526.672H649.163V535.314H657.732V526.672H662.127V548ZM670.564 544.587H678.313V548H665.159V545.422L672.615 535.578H665.379V532.15H678.079V534.655L670.564 544.587Z" fill="#393939"/>
<path d="M411.319 495L869.702 495" stroke="#E2E2E2"/>
<path d="M605.232 460H590.613V457.1L597.513 449.746C598.46 448.711 599.158 447.808 599.607 447.036C600.066 446.265 600.296 445.532 600.296 444.839C600.296 443.892 600.057 443.149 599.578 442.612C599.099 442.065 598.416 441.792 597.527 441.792C596.57 441.792 595.813 442.124 595.257 442.788C594.71 443.442 594.436 444.307 594.436 445.381H590.188C590.188 444.082 590.496 442.896 591.111 441.821C591.736 440.747 592.615 439.907 593.748 439.302C594.881 438.687 596.165 438.379 597.6 438.379C599.798 438.379 601.502 438.906 602.713 439.961C603.933 441.016 604.544 442.505 604.544 444.429C604.544 445.483 604.27 446.558 603.724 447.651C603.177 448.745 602.239 450.02 600.911 451.475L596.062 456.587H605.232V460ZM608.235 457.92C608.235 457.246 608.46 456.699 608.909 456.279C609.368 455.859 609.939 455.649 610.623 455.649C611.316 455.649 611.888 455.859 612.337 456.279C612.796 456.699 613.025 457.246 613.025 457.92C613.025 458.584 612.801 459.126 612.351 459.546C611.902 459.956 611.326 460.161 610.623 460.161C609.93 460.161 609.358 459.956 608.909 459.546C608.46 459.126 608.235 458.584 608.235 457.92ZM617.2 449.512L618.431 438.672H630.384V442.202H621.902L621.375 446.787C622.381 446.25 623.45 445.981 624.583 445.981C626.614 445.981 628.206 446.611 629.358 447.871C630.511 449.131 631.087 450.894 631.087 453.159C631.087 454.536 630.794 455.771 630.208 456.865C629.632 457.949 628.802 458.794 627.718 459.399C626.634 459.995 625.354 460.293 623.88 460.293C622.591 460.293 621.394 460.034 620.291 459.517C619.187 458.989 618.313 458.252 617.669 457.305C617.034 456.357 616.697 455.278 616.658 454.067H620.848C620.935 454.956 621.243 455.649 621.77 456.147C622.307 456.636 623.006 456.88 623.865 456.88C624.822 456.88 625.559 456.538 626.077 455.854C626.595 455.161 626.853 454.185 626.853 452.925C626.853 451.714 626.556 450.786 625.96 450.142C625.364 449.497 624.519 449.175 623.426 449.175C622.42 449.175 621.604 449.438 620.979 449.966L620.569 450.347L617.2 449.512ZM647.2 453.643L645.677 455.166V460H641.443V437.5H645.677V449.966L646.497 448.911L650.555 444.15H655.638L649.91 450.757L656.136 460H651.272L647.2 453.643ZM675.105 460H670.711V450.859H662.141V460H657.747V438.672H662.141V447.314H670.711V438.672H675.105V460ZM683.543 456.587H691.292V460H678.138V457.422L685.594 447.578H678.357V444.15H691.057V446.655L683.543 456.587Z" fill="#393939"/>
<path d="M411.319 405L869.702 405" stroke="#E2E2E2"/>
<path d="M613.875 370H609.641V353.682L604.588 355.249V351.807L613.421 348.643H613.875V370ZM634.222 363.643L632.698 365.166V370H628.465V347.5H632.698V359.966L633.518 358.911L637.576 354.15H642.659L636.932 360.757L643.157 370H638.294L634.222 363.643ZM662.127 370H657.732V360.859H649.163V370H644.768V348.672H649.163V357.314H657.732V348.672H662.127V370ZM670.564 366.587H678.313V370H665.159V367.422L672.615 357.578H665.379V354.15H678.079V356.655L670.564 366.587Z" fill="#393939"/>
<path d="M411.319 316L869.702 316" stroke="#E2E2E2"/>
<path d="M598.684 270.461H600.94C602.015 270.461 602.81 270.192 603.328 269.655C603.846 269.118 604.104 268.405 604.104 267.517C604.104 266.657 603.846 265.988 603.328 265.51C602.82 265.031 602.117 264.792 601.219 264.792C600.408 264.792 599.729 265.017 599.182 265.466C598.636 265.905 598.362 266.481 598.362 267.194H594.129C594.129 266.081 594.427 265.085 595.022 264.206C595.628 263.317 596.468 262.624 597.542 262.126C598.626 261.628 599.817 261.379 601.116 261.379C603.372 261.379 605.14 261.921 606.419 263.005C607.698 264.079 608.338 265.563 608.338 267.458C608.338 268.435 608.04 269.333 607.444 270.153C606.849 270.974 606.067 271.604 605.1 272.043C606.302 272.473 607.195 273.117 607.781 273.977C608.377 274.836 608.675 275.852 608.675 277.023C608.675 278.918 607.981 280.437 606.595 281.579C605.218 282.722 603.391 283.293 601.116 283.293C598.987 283.293 597.244 282.731 595.887 281.608C594.539 280.485 593.865 279.001 593.865 277.155H598.099C598.099 277.956 598.396 278.61 598.992 279.118C599.598 279.626 600.34 279.88 601.219 279.88C602.224 279.88 603.011 279.616 603.577 279.089C604.153 278.552 604.441 277.844 604.441 276.965C604.441 274.836 603.269 273.771 600.926 273.771H598.684V270.461ZM626.224 283H611.604V280.1L618.504 272.746C619.451 271.711 620.149 270.808 620.599 270.036C621.057 269.265 621.287 268.532 621.287 267.839C621.287 266.892 621.048 266.149 620.569 265.612C620.091 265.065 619.407 264.792 618.518 264.792C617.561 264.792 616.805 265.124 616.248 265.788C615.701 266.442 615.428 267.307 615.428 268.381H611.18C611.18 267.082 611.487 265.896 612.102 264.821C612.727 263.747 613.606 262.907 614.739 262.302C615.872 261.687 617.156 261.379 618.592 261.379C620.789 261.379 622.493 261.906 623.704 262.961C624.925 264.016 625.535 265.505 625.535 267.429C625.535 268.483 625.262 269.558 624.715 270.651C624.168 271.745 623.23 273.02 621.902 274.475L617.054 279.587H626.224V283ZM629.461 272.512L630.691 261.672H642.644V265.202H634.163L633.636 269.787C634.641 269.25 635.711 268.981 636.844 268.981C638.875 268.981 640.467 269.611 641.619 270.871C642.771 272.131 643.348 273.894 643.348 276.159C643.348 277.536 643.055 278.771 642.469 279.865C641.892 280.949 641.062 281.794 639.978 282.399C638.894 282.995 637.615 283.293 636.141 283.293C634.851 283.293 633.655 283.034 632.552 282.517C631.448 281.989 630.574 281.252 629.93 280.305C629.295 279.357 628.958 278.278 628.919 277.067H633.108C633.196 277.956 633.504 278.649 634.031 279.147C634.568 279.636 635.266 279.88 636.126 279.88C637.083 279.88 637.82 279.538 638.338 278.854C638.855 278.161 639.114 277.185 639.114 275.925C639.114 274.714 638.816 273.786 638.221 273.142C637.625 272.497 636.78 272.175 635.686 272.175C634.681 272.175 633.865 272.438 633.24 272.966L632.83 273.347L629.461 272.512ZM671.341 283H666.946V273.859H658.377V283H653.982V261.672H658.377V270.314H666.946V261.672H671.341V283ZM679.778 279.587H687.527V283H674.373V280.422L681.829 270.578H674.593V267.15H687.293V269.655L679.778 279.587Z" fill="#393939"/>
<path d="M523.84 175.896C523.952 175.576 524.128 175.336 524.368 175.176C524.624 175.016 524.904 174.936 525.208 174.936C525.592 174.936 525.92 175.056 526.192 175.296C526.48 175.536 526.624 175.856 526.624 176.256C526.624 176.4 526.584 176.608 526.504 176.88L521.344 191.16C521.216 191.48 521 191.728 520.696 191.904C520.408 192.08 520.088 192.168 519.736 192.168C519.384 192.168 519.056 192.08 518.752 191.904C518.448 191.728 518.24 191.48 518.128 191.16L514.144 179.856L510.088 191.16C509.96 191.48 509.744 191.728 509.44 191.904C509.152 192.08 508.832 192.168 508.48 192.168C508.128 192.168 507.8 192.08 507.496 191.904C507.208 191.728 507.008 191.48 506.896 191.16L501.736 176.88C501.656 176.64 501.616 176.432 501.616 176.256C501.616 175.856 501.76 175.536 502.048 175.296C502.352 175.056 502.704 174.936 503.104 174.936C503.424 174.936 503.712 175.016 503.968 175.176C504.224 175.336 504.408 175.576 504.52 175.896L508.6 187.632L512.8 175.968C512.912 175.648 513.096 175.4 513.352 175.224C513.608 175.032 513.888 174.936 514.192 174.936C514.496 174.936 514.776 175.032 515.032 175.224C515.304 175.4 515.496 175.656 515.608 175.992L519.688 187.776L523.84 175.896ZM535.872 179.976C538.624 179.976 540 181.584 540 184.8V190.704C540 191.152 539.864 191.504 539.592 191.76C539.336 192.016 538.976 192.144 538.512 192.144C538.048 192.144 537.68 192.016 537.408 191.76C537.136 191.504 537 191.152 537 190.704V184.8C537 183.952 536.824 183.336 536.472 182.952C536.136 182.552 535.6 182.352 534.864 182.352C534 182.352 533.304 182.624 532.776 183.168C532.264 183.712 532.008 184.44 532.008 185.352V190.704C532.008 191.152 531.872 191.504 531.6 191.76C531.328 192.016 530.96 192.144 530.496 192.144C530.032 192.144 529.664 192.016 529.392 191.76C529.136 191.504 529.008 191.152 529.008 190.704V176.352C529.008 175.936 529.144 175.6 529.416 175.344C529.704 175.088 530.072 174.96 530.52 174.96C530.968 174.96 531.328 175.08 531.6 175.32C531.872 175.56 532.008 175.888 532.008 176.304V181.896C532.408 181.272 532.936 180.8 533.592 180.48C534.264 180.144 535.024 179.976 535.872 179.976ZM544.535 192.144C544.103 192.144 543.743 192.024 543.455 191.784C543.183 191.528 543.047 191.168 543.047 190.704V181.44C543.047 180.976 543.183 180.624 543.455 180.384C543.743 180.144 544.103 180.024 544.535 180.024C544.967 180.024 545.327 180.144 545.615 180.384C545.903 180.624 546.047 180.976 546.047 181.44V190.704C546.047 191.168 545.903 191.528 545.615 191.784C545.327 192.024 544.967 192.144 544.535 192.144ZM544.535 177.888C543.991 177.888 543.559 177.744 543.239 177.456C542.919 177.152 542.759 176.76 542.759 176.28C542.759 175.8 542.919 175.416 543.239 175.128C543.559 174.84 543.991 174.696 544.535 174.696C545.063 174.696 545.487 174.84 545.807 175.128C546.143 175.416 546.311 175.8 546.311 176.28C546.311 176.76 546.151 177.152 545.831 177.456C545.511 177.744 545.079 177.888 544.535 177.888ZM554.349 192.192C553.181 192.192 552.149 191.944 551.253 191.448C550.373 190.952 549.693 190.248 549.213 189.336C548.733 188.424 548.493 187.36 548.493 186.144C548.493 184.928 548.741 183.856 549.237 182.928C549.749 181.984 550.461 181.256 551.373 180.744C552.285 180.232 553.333 179.976 554.517 179.976C555.141 179.976 555.765 180.064 556.389 180.24C557.029 180.416 557.589 180.656 558.069 180.96C558.581 181.296 558.837 181.72 558.837 182.232C558.837 182.584 558.749 182.872 558.573 183.096C558.413 183.304 558.197 183.408 557.925 183.408C557.749 183.408 557.565 183.368 557.373 183.288C557.181 183.208 556.989 183.112 556.797 183C556.445 182.792 556.109 182.632 555.789 182.52C555.469 182.392 555.101 182.328 554.685 182.328C553.693 182.328 552.925 182.656 552.381 183.312C551.853 183.952 551.589 184.88 551.589 186.096C551.589 187.296 551.853 188.224 552.381 188.88C552.925 189.52 553.693 189.84 554.685 189.84C555.085 189.84 555.437 189.784 555.741 189.672C556.061 189.544 556.413 189.376 556.797 189.168C557.037 189.024 557.245 188.92 557.421 188.856C557.597 188.776 557.773 188.736 557.949 188.736C558.205 188.736 558.421 188.848 558.597 189.072C558.773 189.296 558.861 189.576 558.861 189.912C558.861 190.184 558.797 190.424 558.669 190.632C558.557 190.824 558.365 191 558.093 191.16C557.597 191.48 557.021 191.736 556.365 191.928C555.709 192.104 555.037 192.192 554.349 192.192ZM567.724 179.976C570.476 179.976 571.852 181.584 571.852 184.8V190.704C571.852 191.152 571.716 191.504 571.444 191.76C571.188 192.016 570.828 192.144 570.364 192.144C569.9 192.144 569.532 192.016 569.26 191.76C568.988 191.504 568.852 191.152 568.852 190.704V184.8C568.852 183.952 568.676 183.336 568.324 182.952C567.988 182.552 567.452 182.352 566.716 182.352C565.852 182.352 565.156 182.624 564.628 183.168C564.116 183.712 563.86 184.44 563.86 185.352V190.704C563.86 191.152 563.724 191.504 563.452 191.76C563.18 192.016 562.812 192.144 562.348 192.144C561.884 192.144 561.516 192.016 561.244 191.76C560.988 191.504 560.86 191.152 560.86 190.704V176.352C560.86 175.936 560.996 175.6 561.268 175.344C561.556 175.088 561.924 174.96 562.372 174.96C562.82 174.96 563.18 175.08 563.452 175.32C563.724 175.56 563.86 175.888 563.86 176.304V181.896C564.26 181.272 564.788 180.8 565.444 180.48C566.116 180.144 566.876 179.976 567.724 179.976ZM587.343 177.312C586.607 177.36 586.071 177.584 585.735 177.984C585.399 178.384 585.231 178.96 585.231 179.712V180.264H587.271C588.167 180.264 588.615 180.64 588.615 181.392C588.615 182.144 588.167 182.52 587.271 182.52H585.231V190.704C585.231 191.168 585.087 191.52 584.799 191.76C584.527 192 584.175 192.12 583.743 192.12C583.311 192.12 582.951 192 582.663 191.76C582.375 191.52 582.231 191.168 582.231 190.704V182.52H581.031C580.135 182.52 579.687 182.144 579.687 181.392C579.687 180.64 580.135 180.264 581.031 180.264H582.231V180.096C582.231 178.592 582.623 177.416 583.407 176.568C584.207 175.704 585.327 175.216 586.767 175.104L587.391 175.056C588.031 175.008 588.479 175.08 588.735 175.272C589.007 175.448 589.143 175.728 589.143 176.112C589.143 176.8 588.751 177.184 587.967 177.264L587.343 177.312ZM596.568 180.024C596.984 179.992 597.312 180.08 597.552 180.288C597.792 180.496 597.912 180.808 597.912 181.224C597.912 181.656 597.808 181.976 597.6 182.184C597.392 182.392 597.016 182.528 596.472 182.592L595.752 182.664C594.808 182.76 594.112 183.08 593.664 183.624C593.232 184.168 593.016 184.848 593.016 185.664V190.704C593.016 191.168 592.872 191.528 592.584 191.784C592.296 192.024 591.936 192.144 591.504 192.144C591.072 192.144 590.712 192.024 590.424 191.784C590.152 191.528 590.016 191.168 590.016 190.704V181.416C590.016 180.968 590.152 180.624 590.424 180.384C590.712 180.144 591.064 180.024 591.48 180.024C591.896 180.024 592.232 180.144 592.488 180.384C592.744 180.608 592.872 180.936 592.872 181.368V182.328C593.176 181.624 593.624 181.08 594.216 180.696C594.824 180.312 595.496 180.096 596.232 180.048L596.568 180.024ZM608.257 188.784C608.529 188.784 608.745 188.888 608.905 189.096C609.081 189.304 609.169 189.584 609.169 189.936C609.169 190.432 608.873 190.848 608.281 191.184C607.737 191.488 607.121 191.736 606.433 191.928C605.745 192.104 605.089 192.192 604.465 192.192C602.577 192.192 601.081 191.648 599.977 190.56C598.873 189.472 598.321 187.984 598.321 186.096C598.321 184.896 598.561 183.832 599.041 182.904C599.521 181.976 600.193 181.256 601.057 180.744C601.937 180.232 602.929 179.976 604.033 179.976C605.089 179.976 606.009 180.208 606.793 180.672C607.577 181.136 608.185 181.792 608.617 182.64C609.049 183.488 609.265 184.488 609.265 185.64C609.265 186.328 608.961 186.672 608.353 186.672H601.273C601.369 187.776 601.681 188.592 602.209 189.12C602.737 189.632 603.505 189.888 604.513 189.888C605.025 189.888 605.473 189.824 605.857 189.696C606.257 189.568 606.705 189.392 607.201 189.168C607.681 188.912 608.033 188.784 608.257 188.784ZM604.105 182.088C603.289 182.088 602.633 182.344 602.137 182.856C601.657 183.368 601.369 184.104 601.273 185.064H606.697C606.665 184.088 606.425 183.352 605.977 182.856C605.529 182.344 604.905 182.088 604.105 182.088ZM621.559 180.024C622.007 180.024 622.367 180.152 622.639 180.408C622.911 180.664 623.047 181.008 623.047 181.44V195.048C623.047 195.464 622.903 195.8 622.615 196.056C622.327 196.312 621.959 196.44 621.511 196.44C621.063 196.44 620.703 196.312 620.431 196.056C620.175 195.816 620.047 195.496 620.047 195.096V190.152C619.695 190.792 619.183 191.296 618.511 191.664C617.855 192.016 617.111 192.192 616.279 192.192C615.255 192.192 614.351 191.944 613.567 191.448C612.783 190.952 612.167 190.248 611.719 189.336C611.287 188.424 611.071 187.36 611.071 186.144C611.071 184.928 611.287 183.856 611.719 182.928C612.167 181.984 612.783 181.256 613.567 180.744C614.367 180.232 615.271 179.976 616.279 179.976C617.127 179.976 617.879 180.16 618.535 180.528C619.207 180.88 619.719 181.384 620.071 182.04V181.44C620.071 181.008 620.207 180.664 620.479 180.408C620.751 180.152 621.111 180.024 621.559 180.024ZM617.095 189.864C618.039 189.864 618.767 189.536 619.279 188.88C619.807 188.224 620.071 187.296 620.071 186.096C620.071 184.88 619.807 183.944 619.279 183.288C618.767 182.632 618.031 182.304 617.071 182.304C616.127 182.304 615.391 182.64 614.863 183.312C614.335 183.984 614.071 184.928 614.071 186.144C614.071 187.328 614.335 188.248 614.863 188.904C615.391 189.544 616.135 189.864 617.095 189.864ZM635.397 180.024C635.861 180.024 636.229 180.152 636.501 180.408C636.773 180.664 636.909 181.008 636.909 181.44V190.752C636.909 191.168 636.765 191.504 636.477 191.76C636.205 192.016 635.845 192.144 635.397 192.144C634.965 192.144 634.621 192.024 634.365 191.784C634.109 191.544 633.981 191.216 633.981 190.8V190.2C633.613 190.84 633.117 191.336 632.493 191.688C631.869 192.024 631.165 192.192 630.381 192.192C627.501 192.192 626.061 190.576 626.061 187.344V181.44C626.061 181.008 626.197 180.664 626.469 180.408C626.741 180.152 627.101 180.024 627.549 180.024C628.013 180.024 628.381 180.152 628.653 180.408C628.925 180.664 629.061 181.008 629.061 181.44V187.368C629.061 188.2 629.229 188.816 629.565 189.216C629.901 189.616 630.429 189.816 631.149 189.816C631.981 189.816 632.645 189.544 633.141 189C633.653 188.44 633.909 187.704 633.909 186.792V181.44C633.909 181.008 634.045 180.664 634.317 180.408C634.589 180.152 634.949 180.024 635.397 180.024ZM649.32 188.784C649.592 188.784 649.808 188.888 649.968 189.096C650.144 189.304 650.232 189.584 650.232 189.936C650.232 190.432 649.936 190.848 649.344 191.184C648.8 191.488 648.184 191.736 647.496 191.928C646.808 192.104 646.152 192.192 645.528 192.192C643.64 192.192 642.144 191.648 641.04 190.56C639.936 189.472 639.384 187.984 639.384 186.096C639.384 184.896 639.624 183.832 640.104 182.904C640.584 181.976 641.256 181.256 642.12 180.744C643 180.232 643.992 179.976 645.096 179.976C646.152 179.976 647.072 180.208 647.856 180.672C648.64 181.136 649.248 181.792 649.68 182.64C650.112 183.488 650.328 184.488 650.328 185.64C650.328 186.328 650.024 186.672 649.416 186.672H642.336C642.432 187.776 642.744 188.592 643.272 189.12C643.8 189.632 644.568 189.888 645.576 189.888C646.088 189.888 646.536 189.824 646.92 189.696C647.32 189.568 647.768 189.392 648.264 189.168C648.744 188.912 649.096 188.784 649.32 188.784ZM645.168 182.088C644.352 182.088 643.696 182.344 643.2 182.856C642.72 183.368 642.432 184.104 642.336 185.064H647.76C647.728 184.088 647.488 183.352 647.04 182.856C646.592 182.344 645.968 182.088 645.168 182.088ZM659.598 179.976C661.006 179.976 662.054 180.376 662.742 181.176C663.43 181.976 663.774 183.184 663.774 184.8V190.704C663.774 191.152 663.638 191.504 663.366 191.76C663.11 192.016 662.75 192.144 662.286 192.144C661.822 192.144 661.454 192.016 661.182 191.76C660.91 191.504 660.774 191.152 660.774 190.704V184.968C660.774 184.056 660.598 183.392 660.246 182.976C659.91 182.56 659.374 182.352 658.638 182.352C657.774 182.352 657.078 182.624 656.55 183.168C656.038 183.712 655.782 184.44 655.782 185.352V190.704C655.782 191.152 655.646 191.504 655.374 191.76C655.102 192.016 654.734 192.144 654.27 192.144C653.806 192.144 653.438 192.016 653.166 191.76C652.91 191.504 652.782 191.152 652.782 190.704V181.416C652.782 181 652.918 180.664 653.19 180.408C653.462 180.152 653.83 180.024 654.294 180.024C654.71 180.024 655.046 180.152 655.302 180.408C655.574 180.648 655.71 180.968 655.71 181.368V182.016C656.11 181.36 656.646 180.856 657.318 180.504C657.99 180.152 658.75 179.976 659.598 179.976ZM672.029 192.192C670.861 192.192 669.829 191.944 668.933 191.448C668.053 190.952 667.373 190.248 666.893 189.336C666.413 188.424 666.173 187.36 666.173 186.144C666.173 184.928 666.421 183.856 666.917 182.928C667.429 181.984 668.141 181.256 669.053 180.744C669.965 180.232 671.013 179.976 672.197 179.976C672.821 179.976 673.445 180.064 674.069 180.24C674.709 180.416 675.269 180.656 675.749 180.96C676.261 181.296 676.517 181.72 676.517 182.232C676.517 182.584 676.429 182.872 676.253 183.096C676.093 183.304 675.877 183.408 675.605 183.408C675.429 183.408 675.245 183.368 675.053 183.288C674.861 183.208 674.669 183.112 674.477 183C674.125 182.792 673.789 182.632 673.469 182.52C673.149 182.392 672.781 182.328 672.365 182.328C671.373 182.328 670.605 182.656 670.061 183.312C669.533 183.952 669.269 184.88 669.269 186.096C669.269 187.296 669.533 188.224 670.061 188.88C670.605 189.52 671.373 189.84 672.365 189.84C672.765 189.84 673.117 189.784 673.421 189.672C673.741 189.544 674.093 189.376 674.477 189.168C674.717 189.024 674.925 188.92 675.101 188.856C675.277 188.776 675.453 188.736 675.629 188.736C675.885 188.736 676.101 188.848 676.277 189.072C676.453 189.296 676.541 189.576 676.541 189.912C676.541 190.184 676.477 190.424 676.349 190.632C676.237 190.824 676.045 191 675.773 191.16C675.277 191.48 674.701 191.736 674.045 191.928C673.389 192.104 672.717 192.192 672.029 192.192ZM686.724 180.888C686.852 180.6 687.02 180.392 687.228 180.264C687.452 180.12 687.692 180.048 687.948 180.048C688.316 180.048 688.644 180.176 688.932 180.432C689.236 180.672 689.388 180.976 689.388 181.344C689.388 181.52 689.34 181.704 689.244 181.896L682.692 195.624C682.42 196.168 681.996 196.44 681.42 196.44C681.052 196.44 680.724 196.32 680.436 196.08C680.164 195.856 680.028 195.568 680.028 195.216C680.028 195.04 680.076 194.84 680.172 194.616L681.804 191.184L677.34 181.896C677.26 181.736 677.22 181.552 677.22 181.344C677.22 180.976 677.372 180.664 677.676 180.408C677.996 180.152 678.356 180.024 678.756 180.024C679.028 180.024 679.276 180.096 679.5 180.24C679.724 180.368 679.9 180.576 680.028 180.864L683.388 188.28L686.724 180.888ZM704.432 179.976C705.44 179.976 706.336 180.232 707.12 180.744C707.92 181.256 708.536 181.984 708.968 182.928C709.416 183.856 709.64 184.928 709.64 186.144C709.64 187.36 709.416 188.424 708.968 189.336C708.536 190.248 707.928 190.952 707.144 191.448C706.36 191.944 705.456 192.192 704.432 192.192C703.6 192.192 702.856 192.016 702.2 191.664C701.544 191.312 701.04 190.824 700.688 190.2V195.096C700.688 195.512 700.552 195.84 700.28 196.08C700.008 196.32 699.648 196.44 699.2 196.44C698.752 196.44 698.384 196.312 698.096 196.056C697.824 195.8 697.688 195.464 697.688 195.048V181.44C697.688 181.008 697.816 180.664 698.072 180.408C698.344 180.152 698.704 180.024 699.152 180.024C699.6 180.024 699.96 180.152 700.232 180.408C700.504 180.664 700.64 181.008 700.64 181.44V182.04C700.992 181.384 701.496 180.88 702.152 180.528C702.824 180.16 703.584 179.976 704.432 179.976ZM703.64 189.864C704.584 189.864 705.32 189.544 705.848 188.904C706.376 188.248 706.64 187.328 706.64 186.144C706.64 184.928 706.376 183.984 705.848 183.312C705.32 182.64 704.584 182.304 703.64 182.304C702.68 182.304 701.936 182.632 701.408 183.288C700.896 183.944 700.64 184.88 700.64 186.096C700.64 187.296 700.896 188.224 701.408 188.88C701.936 189.536 702.68 189.864 703.64 189.864ZM713.59 192.144C713.158 192.144 712.798 192.024 712.51 191.784C712.238 191.528 712.102 191.168 712.102 190.704V176.376C712.102 175.912 712.238 175.56 712.51 175.32C712.798 175.08 713.158 174.96 713.59 174.96C714.022 174.96 714.382 175.08 714.67 175.32C714.958 175.56 715.102 175.912 715.102 176.376V190.704C715.102 191.168 714.958 191.528 714.67 191.784C714.382 192.024 714.022 192.144 713.59 192.144ZM723.284 179.976C724.916 179.976 726.124 180.384 726.908 181.2C727.708 182 728.108 183.224 728.108 184.872V190.728C728.108 191.16 727.98 191.504 727.724 191.76C727.468 192 727.116 192.12 726.668 192.12C726.252 192.12 725.908 191.992 725.636 191.736C725.38 191.48 725.252 191.144 725.252 190.728V190.2C724.98 190.824 724.548 191.312 723.956 191.664C723.38 192.016 722.708 192.192 721.94 192.192C721.156 192.192 720.444 192.032 719.804 191.712C719.164 191.392 718.66 190.952 718.292 190.392C717.924 189.832 717.74 189.208 717.74 188.52C717.74 187.656 717.956 186.976 718.388 186.48C718.836 185.984 719.556 185.624 720.548 185.4C721.54 185.176 722.908 185.064 724.652 185.064H725.252V184.512C725.252 183.728 725.084 183.16 724.748 182.808C724.412 182.44 723.868 182.256 723.116 182.256C722.652 182.256 722.18 182.328 721.7 182.472C721.22 182.6 720.652 182.792 719.996 183.048C719.58 183.256 719.276 183.36 719.084 183.36C718.796 183.36 718.556 183.256 718.364 183.048C718.188 182.84 718.1 182.568 718.1 182.232C718.1 181.96 718.164 181.728 718.292 181.536C718.436 181.328 718.668 181.136 718.988 180.96C719.548 180.656 720.212 180.416 720.98 180.24C721.764 180.064 722.532 179.976 723.284 179.976ZM722.54 190.032C723.34 190.032 723.988 189.768 724.484 189.24C724.996 188.696 725.252 188 725.252 187.152V186.648H724.82C723.748 186.648 722.916 186.696 722.324 186.792C721.732 186.888 721.308 187.056 721.052 187.296C720.796 187.536 720.668 187.864 720.668 188.28C720.668 188.792 720.844 189.216 721.196 189.552C721.564 189.872 722.012 190.032 722.54 190.032ZM739.341 180.888C739.469 180.6 739.637 180.392 739.845 180.264C740.069 180.12 740.309 180.048 740.565 180.048C740.933 180.048 741.261 180.176 741.549 180.432C741.853 180.672 742.005 180.976 742.005 181.344C742.005 181.52 741.957 181.704 741.861 181.896L735.309 195.624C735.037 196.168 734.613 196.44 734.037 196.44C733.669 196.44 733.341 196.32 733.053 196.08C732.781 195.856 732.645 195.568 732.645 195.216C732.645 195.04 732.693 194.84 732.789 194.616L734.421 191.184L729.957 181.896C729.877 181.736 729.837 181.552 729.837 181.344C729.837 180.976 729.989 180.664 730.293 180.408C730.613 180.152 730.973 180.024 731.373 180.024C731.645 180.024 731.893 180.096 732.117 180.24C732.341 180.368 732.517 180.576 732.645 180.864L736.005 188.28L739.341 180.888ZM752.89 188.784C753.162 188.784 753.378 188.888 753.538 189.096C753.714 189.304 753.802 189.584 753.802 189.936C753.802 190.432 753.506 190.848 752.914 191.184C752.37 191.488 751.754 191.736 751.066 191.928C750.378 192.104 749.722 192.192 749.098 192.192C747.21 192.192 745.714 191.648 744.61 190.56C743.506 189.472 742.954 187.984 742.954 186.096C742.954 184.896 743.194 183.832 743.674 182.904C744.154 181.976 744.826 181.256 745.69 180.744C746.57 180.232 747.562 179.976 748.666 179.976C749.722 179.976 750.642 180.208 751.426 180.672C752.21 181.136 752.818 181.792 753.25 182.64C753.682 183.488 753.898 184.488 753.898 185.64C753.898 186.328 753.594 186.672 752.986 186.672H745.906C746.002 187.776 746.314 188.592 746.842 189.12C747.37 189.632 748.138 189.888 749.146 189.888C749.658 189.888 750.106 189.824 750.49 189.696C750.89 189.568 751.338 189.392 751.834 189.168C752.314 188.912 752.666 188.784 752.89 188.784ZM748.738 182.088C747.922 182.088 747.266 182.344 746.77 182.856C746.29 183.368 746.002 184.104 745.906 185.064H751.33C751.298 184.088 751.058 183.352 750.61 182.856C750.162 182.344 749.538 182.088 748.738 182.088ZM766.144 174.96C766.592 174.96 766.96 175.088 767.248 175.344C767.536 175.6 767.68 175.936 767.68 176.352V190.704C767.68 191.136 767.544 191.48 767.272 191.736C767 191.992 766.64 192.12 766.192 192.12C765.744 192.12 765.384 191.992 765.112 191.736C764.84 191.48 764.704 191.136 764.704 190.704V190.104C764.352 190.76 763.84 191.272 763.168 191.64C762.512 192.008 761.76 192.192 760.912 192.192C759.904 192.192 759 191.936 758.2 191.424C757.416 190.912 756.8 190.192 756.352 189.264C755.92 188.32 755.704 187.24 755.704 186.024C755.704 184.808 755.92 183.744 756.352 182.832C756.8 181.92 757.416 181.216 758.2 180.72C758.984 180.224 759.888 179.976 760.912 179.976C761.76 179.976 762.512 180.152 763.168 180.504C763.824 180.856 764.328 181.352 764.68 181.992V176.304C764.68 175.904 764.808 175.584 765.064 175.344C765.336 175.088 765.696 174.96 766.144 174.96ZM761.704 189.864C762.664 189.864 763.4 189.536 763.912 188.88C764.44 188.224 764.704 187.288 764.704 186.072C764.704 184.856 764.44 183.928 763.912 183.288C763.4 182.632 762.672 182.304 761.728 182.304C760.768 182.304 760.024 182.624 759.496 183.264C758.968 183.904 758.704 184.824 758.704 186.024C758.704 187.24 758.968 188.184 759.496 188.856C760.024 189.528 760.76 189.864 761.704 189.864ZM774.462 187.104C774.19 187.104 773.966 187.008 773.79 186.816C773.63 186.624 773.55 186.36 773.55 186.024C773.55 185.144 773.71 184.4 774.03 183.792C774.35 183.184 774.814 182.52 775.422 181.8C775.902 181.224 776.254 180.744 776.478 180.36C776.702 179.976 776.814 179.544 776.814 179.064C776.814 178.536 776.614 178.12 776.214 177.816C775.83 177.496 775.302 177.336 774.63 177.336C774.054 177.336 773.502 177.464 772.974 177.72C772.446 177.96 771.83 178.312 771.126 178.776C770.726 179 770.398 179.112 770.142 179.112C769.87 179.112 769.63 178.992 769.422 178.752C769.23 178.496 769.134 178.2 769.134 177.864C769.134 177.4 769.326 177.024 769.71 176.736C770.382 176.16 771.174 175.712 772.086 175.392C772.998 175.056 773.918 174.888 774.846 174.888C775.822 174.888 776.686 175.056 777.438 175.392C778.206 175.728 778.798 176.192 779.214 176.784C779.646 177.376 779.862 178.056 779.862 178.824C779.862 179.656 779.662 180.384 779.262 181.008C778.862 181.616 778.278 182.304 777.51 183.072C776.854 183.744 776.358 184.312 776.022 184.776C775.702 185.224 775.502 185.736 775.422 186.312C775.374 186.568 775.262 186.768 775.086 186.912C774.926 187.04 774.718 187.104 774.462 187.104ZM774.51 192.144C773.998 192.144 773.574 191.976 773.238 191.64C772.902 191.288 772.734 190.856 772.734 190.344C772.734 189.832 772.902 189.408 773.238 189.072C773.574 188.72 773.998 188.544 774.51 188.544C775.022 188.544 775.446 188.72 775.782 189.072C776.118 189.408 776.286 189.832 776.286 190.344C776.286 190.856 776.11 191.288 775.758 191.64C775.422 191.976 775.006 192.144 774.51 192.144Z" fill="white"/>
<path d="M435.671 644.875C436.784 644.875 437.78 643.938 437.78 642.766V633.625H444.342C444.811 633.625 445.28 633.215 445.28 632.688V630.812C445.28 630.344 444.811 629.875 444.342 629.875H436.139C434.967 629.875 434.03 630.871 434.03 631.984V641.125H428.405V620.734C428.405 619.621 427.409 618.625 426.296 618.625H417.389C416.217 618.625 415.28 619.621 415.28 620.734V629.875H408.717C408.19 629.875 407.78 630.344 407.78 630.812V632.688C407.78 633.215 408.19 633.625 408.717 633.625H416.921C418.034 633.625 419.03 632.688 419.03 631.516V622.375H424.655V642.766C424.655 643.938 425.592 644.875 426.764 644.875H435.671Z" fill="white"/>
<path d="M488.088 644.875C488.557 644.875 489.201 644.582 489.553 644.172L498.166 632.57C498.283 632.453 498.342 632.16 498.342 631.984C498.342 631.75 498.225 631.398 497.99 631.281L496.525 630.109C496.408 629.992 496.115 629.934 495.94 629.934C495.705 629.934 495.354 630.051 495.236 630.285L488.088 639.953L472.678 619.387C472.385 618.977 471.74 618.684 471.213 618.625C470.686 618.684 470.041 618.977 469.69 619.387L461.076 630.988C460.959 631.105 460.9 631.398 460.9 631.574C460.9 631.809 461.018 632.16 461.252 632.277L462.717 633.449C462.834 633.566 463.127 633.625 463.303 633.625C463.537 633.625 463.889 633.508 464.006 633.273L471.154 623.605L486.565 644.172C486.857 644.582 487.502 644.875 488.029 644.875H488.088Z" fill="white"/>
<path d="M381.847 644.875C387.296 644.875 390.988 636.848 392.101 633.566C392.101 633.449 392.101 633.332 392.101 633.273C392.101 632.863 391.808 632.453 391.456 632.336L389.64 631.809C389.581 631.809 389.464 631.809 389.406 631.809C388.995 631.809 388.644 632.043 388.527 632.395C387.179 636.379 384.132 641.125 381.847 641.125C379.093 641.125 376.984 635.793 375.109 631.105C372.706 624.953 370.245 618.625 364.972 618.625C359.464 618.625 355.773 626.711 354.659 629.992C354.659 630.109 354.659 630.227 354.659 630.285C354.659 630.695 354.952 631.105 355.304 631.223L357.12 631.75C357.179 631.75 357.296 631.75 357.355 631.75C357.765 631.75 358.116 631.516 358.234 631.105C359.581 627.18 362.628 622.375 364.972 622.375C367.667 622.375 369.777 627.766 371.652 632.453C374.054 638.605 376.515 644.875 381.847 644.875Z" fill="white"/>
<path d="M704.652 72L926.544 70.9333" stroke="white"/>
<path d="M649.511 85C655.324 85 659.261 76.4375 660.449 72.9375C660.449 72.8125 660.449 72.6875 660.449 72.625C660.449 72.1875 660.136 71.75 659.761 71.625L657.824 71.0625C657.761 71.0625 657.636 71.0625 657.574 71.0625C657.136 71.0625 656.761 71.3125 656.636 71.6875C655.199 75.9375 651.949 81 649.511 81C646.574 81 644.324 75.3125 642.324 70.3125C639.761 63.75 637.136 57 631.511 57C625.636 57 621.699 65.625 620.511 69.125C620.511 69.25 620.511 69.375 620.511 69.4375C620.511 69.875 620.824 70.3125 621.199 70.4375L623.136 71C623.199 71 623.324 71 623.386 71C623.824 71 624.199 70.75 624.324 70.3125C625.761 66.125 629.011 61 631.511 61C634.386 61 636.636 66.75 638.636 71.75C641.199 78.3125 643.824 85 649.511 85Z" fill="white"/>
<path d="M354.477 72L576.369 70.873" stroke="white"/>
<defs>
<filter id="filter0_d" x="347.022" y="226" width="586.978" height="372" filterUnits="userSpaceOnUse" color-interpolation-filters="sRGB">
<feFlood flood-opacity="0" result="BackgroundImageFix"/>
<feColorMatrix in="SourceAlpha" type="matrix" values="0 0 0 0 0 0 0 0 0 0 0 0 0 0 0 0 0 0 127 0"/>
<feOffset dy="7"/>
<feGaussianBlur stdDeviation="3.5"/>
<feColorMatrix type="matrix" values="0 0 0 0 0 0 0 0 0 0 0 0 0 0 0 0 0 0 0.1 0"/>
<feBlend mode="normal" in2="BackgroundImageFix" result="effect1_dropShadow"/>
<feBlend mode="normal" in="SourceGraphic" in2="effect1_dropShadow" result="shape"/>
</filter>
<linearGradient id="paint0_linear" x1="640" y1="0" x2="640" y2="720" gradientUnits="userSpaceOnUse">
<stop stop-color="#D40000"/>
<stop offset="1" stop-color="#610000"/>
</linearGradient>
</defs>
</svg>
